<?xml version="1.0" encoding="UTF-8" standalone="no"?>
<!-- Created with Inkscape (http://www.inkscape.org/) -->

<svg
   xmlns:dc="http://purl.org/dc/elements/1.1/"
   xmlns:cc="http://creativecommons.org/ns#"
   xmlns:rdf="http://www.w3.org/1999/02/22-rdf-syntax-ns#"
   xmlns:svg="http://www.w3.org/2000/svg"
   xmlns="http://www.w3.org/2000/svg"
   xmlns:sodipodi="http://sodipodi.sourceforge.net/DTD/sodipodi-0.dtd"
   xmlns:inkscape="http://www.inkscape.org/namespaces/inkscape"
   width="64"
   height="64"
   viewBox="0 0 16.933333 16.933334"
   version="1.1"
   id="svg8"
   inkscape:version="0.92.5 (2060ec1f9f, 2020-04-08)"
   sodipodi:docname="keyboard.svg">
  <defs
     id="defs2" />
  <sodipodi:namedview
     id="base"
     pagecolor="#ffffff"
     bordercolor="#666666"
     borderopacity="1.0"
     inkscape:pageopacity="0.0"
     inkscape:pageshadow="2"
     inkscape:zoom="11.2"
     inkscape:cx="13.145382"
     inkscape:cy="32.698036"
     inkscape:document-units="mm"
     inkscape:current-layer="layer1"
     showgrid="true"
     units="px"
     inkscape:window-width="1871"
     inkscape:window-height="1056"
     inkscape:window-x="49"
     inkscape:window-y="24"
     inkscape:window-maximized="1"
     inkscape:pagecheckerboard="true">
    <inkscape:grid
       type="xygrid"
       id="grid4518"
       empspacing="4" />
  </sodipodi:namedview>
  <metadata
     id="metadata5">
    <rdf:RDF>
      <cc:Work
         rdf:about="">
        <dc:format>image/svg+xml</dc:format>
        <dc:type
           rdf:resource="http://purl.org/dc/dcmitype/StillImage" />
        <dc:title />
      </cc:Work>
    </rdf:RDF>
  </metadata>
  <g
     inkscape:label="Layer 1"
     inkscape:groupmode="layer"
     id="layer1"
     transform="translate(0,-280.06665)">
    <g
       id="g836"
       transform="translate(0,-1.1925235)">
      <path
         sodipodi:nodetypes="ccc"
         inkscape:connector-curvature="0"
         id="path832"
         d="M 5.8208334,296.47082 H 11.1125 v -1.85209"
         style="fill:none;fill-rule:evenodd;stroke:#808080;stroke-width:0.5291667;stroke-linecap:round;stroke-linejoin:round;stroke-miterlimit:4;stroke-dasharray:none;stroke-opacity:1" />
      <path
         sodipodi:nodetypes="ccc"
         inkscape:connector-curvature="0"
         id="path825"
         d="m 5.8208334,296.47082 v -1.85209 H 11.1125"
         style="fill:none;fill-rule:evenodd;stroke:#000000;stroke-width:0.5291667;stroke-linecap:round;stroke-linejoin:round;stroke-miterlimit:4;stroke-dasharray:none;stroke-opacity:1" />
    </g>
    <g
       id="g844"
       transform="translate(0,-1.1925235)">
      <path
         inkscape:connector-curvature="0"
         id="path823"
         d="M 0.52916666,296.47082 H 2.38125 v -1.85209"
         style="fill:none;fill-rule:evenodd;stroke:#808080;stroke-width:0.5291667;stroke-linecap:round;stroke-linejoin:round;stroke-miterlimit:4;stroke-dasharray:none;stroke-opacity:1" />
      <path
         style="fill:none;fill-rule:evenodd;stroke:#000000;stroke-width:0.5291667;stroke-linecap:round;stroke-linejoin:round;stroke-miterlimit:4;stroke-dasharray:none;stroke-opacity:1"
         d="m 0.52916667,296.47082 v -1.85209 H 2.38125"
         id="path815"
         inkscape:connector-curvature="0"
         sodipodi:nodetypes="ccc" />
    </g>
    <g
       id="g840"
       transform="translate(0,-1.1925235)">
      <path
         style="fill:none;fill-rule:evenodd;stroke:#808080;stroke-width:0.5291667;stroke-linecap:round;stroke-linejoin:round;stroke-miterlimit:4;stroke-dasharray:none;stroke-opacity:1"
         d="m 3.175,296.47082 h 1.8520833 v -1.85209"
         id="path826"
         inkscape:connector-curvature="0" />
      <path
         sodipodi:nodetypes="ccc"
         inkscape:connector-curvature="0"
         id="path817"
         d="m 3.1750001,296.47082 -1e-7,-1.85209 h 1.8520833"
         style="fill:none;fill-rule:evenodd;stroke:#000000;stroke-width:0.5291667;stroke-linecap:round;stroke-linejoin:round;stroke-miterlimit:4;stroke-dasharray:none;stroke-opacity:1" />
    </g>
    <g
       id="g848"
       transform="translate(0.26458333,-1.1925201)">
      <path
         inkscape:connector-curvature="0"
         id="path828"
         d="m 11.641667,296.47082 h 1.852083 v -1.85209"
         style="fill:none;fill-rule:evenodd;stroke:#808080;stroke-width:0.5291667;stroke-linecap:round;stroke-linejoin:round;stroke-miterlimit:4;stroke-dasharray:none;stroke-opacity:1" />
      <path
         style="fill:none;fill-rule:evenodd;stroke:#000000;stroke-width:0.5291667;stroke-linecap:round;stroke-linejoin:round;stroke-miterlimit:4;stroke-dasharray:none;stroke-opacity:1"
         d="m 11.641667,296.47082 v -1.85209 h 1.852083"
         id="path819"
         inkscape:connector-curvature="0"
         sodipodi:nodetypes="ccc" />
    </g>
    <g
       id="g852"
       transform="translate(0.26458333,-1.1925201)">
      <path
         style="fill:none;fill-rule:evenodd;stroke:#808080;stroke-width:0.5291667;stroke-linecap:round;stroke-linejoin:round;stroke-miterlimit:4;stroke-dasharray:none;stroke-opacity:1"
         d="m 14.2875,296.47082 h 1.852083 v -1.85209"
         id="path830"
         inkscape:connector-curvature="0" />
      <path
         sodipodi:nodetypes="ccc"
         inkscape:connector-curvature="0"
         id="path821"
         d="m 14.2875,296.47082 v -1.85209 h 1.852083"
         style="fill:none;fill-rule:evenodd;stroke:#000000;stroke-width:0.5291667;stroke-linecap:round;stroke-linejoin:round;stroke-miterlimit:4;stroke-dasharray:none;stroke-opacity:1" />
    </g>
    <g
       id="g858"
       transform="translate(1.3229167,-3.8383535)">
      <path
         style="fill:none;fill-rule:evenodd;stroke:#808080;stroke-width:0.5291667;stroke-linecap:round;stroke-linejoin:round;stroke-miterlimit:4;stroke-dasharray:none;stroke-opacity:1"
         d="m -0.79375003,296.47081 3.17500003,1e-5 v -1.85209"
         id="path854"
         inkscape:connector-curvature="0"
         sodipodi:nodetypes="ccc" />
      <path
         sodipodi:nodetypes="ccc"
         inkscape:connector-curvature="0"
         id="path856"
         d="m -0.79375003,296.47081 v -1.85208 H 2.38125"
         style="fill:none;fill-rule:evenodd;stroke:#000000;stroke-width:0.5291667;stroke-linecap:round;stroke-linejoin:round;stroke-miterlimit:4;stroke-dasharray:none;stroke-opacity:1" />
    </g>
    <g
       id="g864"
       transform="translate(1.3229167,-3.8383535)">
      <path
         inkscape:connector-curvature="0"
         id="path860"
         d="m 3.175,296.47082 h 1.8520833 v -1.85209"
         style="fill:none;fill-rule:evenodd;stroke:#808080;stroke-width:0.5291667;stroke-linecap:round;stroke-linejoin:round;stroke-miterlimit:4;stroke-dasharray:none;stroke-opacity:1" />
      <path
         style="fill:none;fill-rule:evenodd;stroke:#000000;stroke-width:0.5291667;stroke-linecap:round;stroke-linejoin:round;stroke-miterlimit:4;stroke-dasharray:none;stroke-opacity:1"
         d="m 3.1750001,296.47082 -1e-7,-1.85209 h 1.8520833"
         id="path862"
         inkscape:connector-curvature="0"
         sodipodi:nodetypes="ccc" />
    </g>
    <g
       transform="translate(6.6145834,-3.8383535)"
       id="g870">
      <path
         inkscape:connector-curvature="0"
         id="path866"
         d="M 0.52916666,296.47082 H 2.38125 v -1.85209"
         style="fill:none;fill-rule:evenodd;stroke:#808080;stroke-width:0.5291667;stroke-linecap:round;stroke-linejoin:round;stroke-miterlimit:4;stroke-dasharray:none;stroke-opacity:1" />
      <path
         style="fill:none;fill-rule:evenodd;stroke:#000000;stroke-width:0.5291667;stroke-linecap:round;stroke-linejoin:round;stroke-miterlimit:4;stroke-dasharray:none;stroke-opacity:1"
         d="m 0.52916667,296.47082 v -1.85209 H 2.38125"
         id="path868"
         inkscape:connector-curvature="0"
         sodipodi:nodetypes="ccc" />
    </g>
    <g
       transform="translate(6.6145834,-3.8383535)"
       id="g876">
      <path
         style="fill:none;fill-rule:evenodd;stroke:#808080;stroke-width:0.5291667;stroke-linecap:round;stroke-linejoin:round;stroke-miterlimit:4;stroke-dasharray:none;stroke-opacity:1"
         d="m 3.175,296.47082 h 1.8520833 v -1.85209"
         id="path872"
         inkscape:connector-curvature="0" />
      <path
         sodipodi:nodetypes="ccc"
         inkscape:connector-curvature="0"
         id="path874"
         d="m 3.1750001,296.47082 -1e-7,-1.85209 h 1.8520833"
         style="fill:none;fill-rule:evenodd;stroke:#000000;stroke-width:0.5291667;stroke-linecap:round;stroke-linejoin:round;stroke-miterlimit:4;stroke-dasharray:none;stroke-opacity:1" />
    </g>
    <g
       id="g882"
       transform="translate(11.90625,-3.8383535)">
      <path
         style="fill:none;fill-rule:evenodd;stroke:#808080;stroke-width:0.5291667;stroke-linecap:round;stroke-linejoin:round;stroke-miterlimit:4;stroke-dasharray:none;stroke-opacity:1"
         d="m 0.52916666,296.47082 3.96875004,-1e-5 v -1.85208"
         id="path878"
         inkscape:connector-curvature="0"
         sodipodi:nodetypes="ccc" />
      <path
         sodipodi:nodetypes="ccc"
         inkscape:connector-curvature="0"
         id="path880"
         d="m 0.52916667,296.47082 v -1.85209 H 4.4979167"
         style="fill:none;fill-rule:evenodd;stroke:#000000;stroke-width:0.5291667;stroke-linecap:round;stroke-linejoin:round;stroke-miterlimit:4;stroke-dasharray:none;stroke-opacity:1" />
    </g>
    <g
       transform="translate(-2.6458334,-6.4841868)"
       id="g894">
      <path
         style="fill:none;fill-rule:evenodd;stroke:#808080;stroke-width:0.5291667;stroke-linecap:round;stroke-linejoin:round;stroke-miterlimit:4;stroke-dasharray:none;stroke-opacity:1"
         d="m 3.175,296.47082 2.1166667,-1e-5 v -1.85208"
         id="path890"
         inkscape:connector-curvature="0"
         sodipodi:nodetypes="ccc" />
      <path
         sodipodi:nodetypes="ccc"
         inkscape:connector-curvature="0"
         id="path892"
         d="m 3.1750001,296.47082 -1e-7,-1.85209 h 2.1166667"
         style="fill:none;fill-rule:evenodd;stroke:#000000;stroke-width:0.5291667;stroke-linecap:round;stroke-linejoin:round;stroke-miterlimit:4;stroke-dasharray:none;stroke-opacity:1" />
    </g>
    <g
       id="g900"
       transform="translate(2.910417,-6.4841868)">
      <path
         style="fill:none;fill-rule:evenodd;stroke:#808080;stroke-width:0.5291667;stroke-linecap:round;stroke-linejoin:round;stroke-miterlimit:4;stroke-dasharray:none;stroke-opacity:1"
         d="M 0.52916666,296.47082 H 2.38125 v -1.85209"
         id="path896"
         inkscape:connector-curvature="0" />
      <path
         sodipodi:nodetypes="ccc"
         inkscape:connector-curvature="0"
         id="path898"
         d="m 0.52916667,296.47082 v -1.85209 H 2.38125"
         style="fill:none;fill-rule:evenodd;stroke:#000000;stroke-width:0.5291667;stroke-linecap:round;stroke-linejoin:round;stroke-miterlimit:4;stroke-dasharray:none;stroke-opacity:1" />
    </g>
    <g
       id="g906"
       transform="translate(2.910417,-6.4841868)">
      <path
         inkscape:connector-curvature="0"
         id="path902"
         d="m 3.175,296.47082 h 1.8520833 v -1.85209"
         style="fill:none;fill-rule:evenodd;stroke:#808080;stroke-width:0.5291667;stroke-linecap:round;stroke-linejoin:round;stroke-miterlimit:4;stroke-dasharray:none;stroke-opacity:1" />
      <path
         style="fill:none;fill-rule:evenodd;stroke:#000000;stroke-width:0.5291667;stroke-linecap:round;stroke-linejoin:round;stroke-miterlimit:4;stroke-dasharray:none;stroke-opacity:1"
         d="m 3.1750001,296.47082 -1e-7,-1.85209 h 1.8520833"
         id="path904"
         inkscape:connector-curvature="0"
         sodipodi:nodetypes="ccc" />
    </g>
    <g
       id="g912"
       transform="translate(5.5562504,-6.4841868)">
      <path
         inkscape:connector-curvature="0"
         id="path908"
         d="m 3.175,296.47082 h 1.8520833 v -1.85209"
         style="fill:none;fill-rule:evenodd;stroke:#808080;stroke-width:0.5291667;stroke-linecap:round;stroke-linejoin:round;stroke-miterlimit:4;stroke-dasharray:none;stroke-opacity:1" />
      <path
         style="fill:none;fill-rule:evenodd;stroke:#000000;stroke-width:0.5291667;stroke-linecap:round;stroke-linejoin:round;stroke-miterlimit:4;stroke-dasharray:none;stroke-opacity:1"
         d="m 3.1750001,296.47082 -1e-7,-1.85209 h 1.8520833"
         id="path910"
         inkscape:connector-curvature="0"
         sodipodi:nodetypes="ccc" />
    </g>
    <g
       transform="translate(10.847917,-6.4841868)"
       id="g918">
      <path
         inkscape:connector-curvature="0"
         id="path914"
         d="M 0.52916666,296.47082 H 2.38125 v -1.85209"
         style="fill:none;fill-rule:evenodd;stroke:#808080;stroke-width:0.5291667;stroke-linecap:round;stroke-linejoin:round;stroke-miterlimit:4;stroke-dasharray:none;stroke-opacity:1" />
      <path
         style="fill:none;fill-rule:evenodd;stroke:#000000;stroke-width:0.5291667;stroke-linecap:round;stroke-linejoin:round;stroke-miterlimit:4;stroke-dasharray:none;stroke-opacity:1"
         d="m 0.52916667,296.47082 v -1.85209 H 2.38125"
         id="path916"
         inkscape:connector-curvature="0"
         sodipodi:nodetypes="ccc" />
    </g>
    <g
       transform="translate(11.377083,-6.4841868)"
       id="g924">
      <path
         style="fill:none;fill-rule:evenodd;stroke:#808080;stroke-width:0.5291667;stroke-linecap:round;stroke-linejoin:round;stroke-miterlimit:4;stroke-dasharray:none;stroke-opacity:1"
         d="m 2.6458337,296.47081 2.3812496,1e-5 v -1.85209"
         id="path920"
         inkscape:connector-curvature="0"
         sodipodi:nodetypes="ccc" />
      <path
         sodipodi:nodetypes="ccc"
         inkscape:connector-curvature="0"
         id="path922"
         d="m 2.6458337,296.47081 v -1.85208 h 2.3812496"
         style="fill:none;fill-rule:evenodd;stroke:#000000;stroke-width:0.5291667;stroke-linecap:round;stroke-linejoin:round;stroke-miterlimit:4;stroke-dasharray:none;stroke-opacity:1" />
    </g>
    <path
       style="fill:none;fill-rule:evenodd;stroke:#000000;stroke-width:1.05833328;stroke-linecap:butt;stroke-linejoin:miter;stroke-miterlimit:4;stroke-dasharray:none;stroke-opacity:1"
       d="m 8.4666666,287.3408 v -5.29167"
       id="path926"
       inkscape:connector-curvature="0" />
    <path
       style="fill:none;fill-rule:evenodd;stroke:#000000;stroke-width:1.05833328;stroke-linecap:butt;stroke-linejoin:round;stroke-miterlimit:4;stroke-dasharray:none;stroke-opacity:1"
       d="m 6.3499999,284.1658 2.1166667,-2.11667 2.1166664,2.11667"
       id="path928"
       inkscape:connector-curvature="0" />
  </g>
</svg>
